{
    "initial:before": {
        "loopback#favicon": {},
        "loopback#logger": {
            "params": "dev"
        }
    },
    "initial": {
        "compression": {},
        "cors": {
            "params": {
                "origin": true,
                "credentials": true,
                "maxAge": 86400
            }
        }
    },
    "session": {},
    "auth": {},
    "parse": {
        "less-middleware": {
            "params": "$!../client"
        }
    },
    "routes": {},
    "files": {
        "loopback#static": {
            "params": ["$!../client", {"maxAge":86400000}]
        }
    },
    "final": {
        "loopback#urlNotFound": {}
    },
    "final:after": {
        "loopback#errorHandler": {}
    }
}
