{
    "name": "FeedItem",
    "plural": "feeditems",
    "base": "PersistedModel",
    "idInjection": true,
    "options": {
        "validateUpsert": true
    },
      "scope": {"order":"created DESC"},
    "properties": {
        "id": {
            "type": "string",
            "length": 36,
            "id": true,
            "required": false,
            "defaultFn": "uuid",
            "postgresql": {
                "dataType": "VARCHAR",
                "nullable": "NO"
            }
        },
        "data": {
            "type": "string",
            "required": false,
            "postgresql": {
                "dataType": "JSONB",
                "nullable": "YES"
            }
        },
        "created": {
            "type": "date",
            "required": true,
            "defaultFn": "now"
        },
        "description": {
            "type": "string",
            "length": 256,
            "required": true
        }
    },
    "validations": [],
    "relations": {
        "user": {
            "type": "belongsTo",
            "model": "user",
            "foreignKey": "userId"
        },
        "business": {
            "type": "belongsTo",
            "model": "Business",
            "foreignKey": "businessId"
        }
    },
    "protected": [],
    "acls": [{
        "accessType": "*",
        "principalType": "ROLE",
        "principalId": "$everyone",
        "permission": "DENY"
    }, {
        "accessType": "READ",
        "principalType": "ROLE",
        "principalId": "$everyone",
        "permission": "ALLOW"
    }, {
        "accessType": "*",
        "principalType": "ROLE",
        "principalId": "$owner",
        "permission": "ALLOW"
    }, {
        "accessType": "WRITE",
        "principalType": "ROLE",
        "principalId": "$authenticated",
        "permission": "ALLOW"
    }],
    "methods": {}
}
