{
    "name": "user",
    "plural": "users",
    "base": "User",
    "idInjection": true,
    "postgresql": {
        "table": "user"
    },
    "options": {
        "validateUpsert": true
    },
    "scope": {
        "include": "profile"
    },
    "hidden": ["verificationToken", "emailVerified", "realm"],
    "protected": ["verificationToken", "emailVerified", "realm"],
    "properties": {
        "id": {
            "type": "string",
            "length": 36,
            "id": true,
            "required": false,
            "defaultFn": "uuid",
            "postgresql": {
                "dataType": "VARCHAR",
                "nullable": "NO"
            }
        },
        "credentials": null,
        "challenges": null,
        "created": {
            "type": "date",
            "defaultFn": "now"
        },
        "lastUpdated": null,
        "status": null,
        "superUser": {
            "type": "boolean",
            "default": false
        }
    },
    "validations": [],
    "relations": {
        "profile": {
            "type": "hasOne",
            "model": "UserProfile",
            "foreignKey": "userId"
        },
        "userFavorites": {
            "type": "hasMany",
            "model": "UserFavorite",
            "foreignKey": "userId"
        }
    },
    "acls": [{
        "principalType": "ROLE",
        "principalId": "$owner",
        "permission": "ALLOW",
        "property": "__create__profile"
    }, {
        "principalType": "ROLE",
        "principalId": "$owner",
        "permission": "ALLOW",
        "property": "__create__userFavorites"
    }, {
        "principalType": "ROLE",
        "principalId": "$owner",
        "permission": "ALLOW",
        "property": "__get__userFavorites"
    }, {
        "principalType": "ROLE",
        "principalId": "$owner",
        "permission": "ALLOW",
        "property": "__get__profile"
    }, {
        "principalType": "ROLE",
        "principalId": "$owner",
        "permission": "ALLOW",
        "property": "__update__profile"
    }, {
        "principalType": "ROLE",
        "principalId": "$owner",
        "permission": "ALLOW",
        "property": "__destroy__profile"
    }, {
        "principalType": "ROLE",
        "principalId": "$everyone",
        "permission": "ALLOW",
        "property": "delete"
    }, {
        "principalType": "ROLE",
        "principalId": "$everyone",
        "permission": "ALLOW",
        "property": "register"
    }],
    "methods": {}
}
